How to use the R package • opencodecounts
…
library(opencodecounts)
library(tibble)
library(dplyr)
library(ggplot2)

Load codelist

# Import the codelist from OpenCodelists.org
icd10_xix_codelist <- get_codelist("opensafely/icd-10-chapter-xix/4dce479b/")

# Return the first 10 rows of the codelist
as_tibble(icd10_xix_codelist)
#> # A tibble: 1,483 × 2
#>    code    term                                                    
#>    <chr>   <chr>                                                   
#>  1 S00     Superficial injury of head                              
#>  2 S00-S09 Injuries to the head                                    
#>  3 S000    Superficial injury of scalp                             
#>  4 S001    Contusion of eyelid and periocular area                 
#>  5 S002    Other superficial injuries of eyelid and periocular area
#>  6 S003    Superficial injury of nose                              
#>  7 S004    Superficial injury of ear                               
#>  8 S005    Superficial injury of lip and oral cavity               
#>  9 S007    Multiple superficial injuries of head                   
#> 10 S008    Superficial injury of other parts of head               
#> # ℹ 1,473 more rows
…
